# rbin_mid	Dq_mean	Dq_std	(D-Dqd)_mean	(D-Dqd)_std
10.84763848946289	2.63466009782965	0.00813359490474	0.36533990217035	0.00813359490474
12.61665021644868	2.69686587855526	0.00637342864926	0.30313412144474	0.00637342864926
14.67422307418577	2.77142920125706	0.00672283254433	0.22857079874295	0.00672283254433
17.06926879217623	2.82881903854340	0.00565694138083	0.17118096145660	0.00565694138083
19.85255692701726	2.87440096974893	0.00401191188604	0.12559903025107	0.00401191188604
23.08928378115606	2.89935413968664	0.00346564146431	0.10064586031336	0.00346564146431
26.85132670463447	2.89723709586236	0.00259779554140	0.10276290413764	0.00259779554140
31.22698912485784	2.91106755540596	0.00209950954904	0.08893244459404	0.00209950954904
36.31908327147643	2.95838521641662	0.00219043315507	0.04161478358338	0.00219043315507
42.24179683680674	2.98868449284737	0.00136388078454	0.01131550715263	0.00136388078454
49.12545949369494	2.97559003606355	0.00134743238343	0.02440996393645	0.00134743238343
57.13066235502151	2.99730641722797	0.00133278075018	0.00269358277203	0.00133278075018
66.44628277178499	3.00433129822086	0.00131085088388	-0.00433129822086	0.00131085088388
77.26964441081584	2.99741319166897	0.00109034060434	0.00258680833103	0.00109034060434
89.86755017595846	2.99852462740912	0.00082857018525	0.00147537259088	0.00082857018525
104.50520917080630	2.99270931992980	0.00074559149177	0.00729068007020	0.00074559149177
121.53901693280017	3.00131019655484	0.00058802803386	-0.00131019655483	0.00058802803386
141.34655297767989	3.00014400424468	0.00055051433689	-0.00014400424468	0.00055051433689
164.38259035447913	3.00032881150031	0.00044030012393	-0.00032881150031	0.00044030012393
