# rbin_mid	Dq_mean	Dq_std	(D-Dqd)_mean	(D-Dqd)_std
10.31585770956642	2.60434762006047	0.05099786343838	0.39565237993953	0.05099786343838
10.95862407973928	2.62459015525238	0.06536242173026	0.37540984474762	0.06536242173026
11.64058020675720	2.65243741606953	0.04679240938261	0.34756258393047	0.04679240938261
12.36533817066010	2.65961911217510	0.04425889325129	0.34038088782490	0.04425889325129
13.13552514326949	2.71810173666138	0.02558923998048	0.28189826333862	0.02558923998048
13.95313454511485	2.70532822934131	0.02443888848404	0.29467177065869	0.02443888848404
14.82199426785967	2.74123992983013	0.02394627051000	0.25876007016987	0.02394627051000
15.74475596545431	2.79105804433476	0.02343240546737	0.20894195566524	0.02343240546737
16.72447492132137	2.82297454968225	0.01957902992199	0.17702545031775	0.01957902992199
17.76580936083734	2.82645126518842	0.02360131954609	0.17354873481158	0.02360131954609
18.87229642318656	2.83832369168519	0.01435440447210	0.16167630831481	0.01435440447210
20.04673407525158	2.87979171114184	0.01901231097117	0.12020828885816	0.01901231097117
21.29485477827300	2.87211747994470	0.01830972773882	0.12788252005530	0.01830972773882
22.62063978664986	2.90436623570670	0.01182721518617	0.09563376429330	0.01182721518617
24.02945460553049	2.90678070389109	0.00995931413306	0.09321929610891	0.00995931413306
25.52480556806887	2.89283932052618	0.01062973314646	0.10716067947382	0.01062973314646
27.11333056120442	2.89273038165959	0.01262089150140	0.10726961834041	0.01262089150140
28.80127474821006	2.90479246766935	0.01426299373916	0.09520753233065	0.01426299373916
30.59410475678784	2.89505291465762	0.01725821463821	0.10494708534238	0.01725821463821
32.49872703680263	2.90863558550327	0.01268738680249	0.09136441449673	0.01268738680249
34.52208132789386	2.91983947164282	0.00934471612589	0.08016052835718	0.00934471612589
36.67143264314994	2.94736989965041	0.00909980805407	0.05263010034959	0.00909980805407
38.95424506557118	2.96721862381795	0.00652792996133	0.03278137618205	0.00652792996133
41.37964409917534	2.98840690781637	0.00573963702435	0.01159309218363	0.00573963702435
43.95545607106646	2.99364605125666	0.00599355592759	0.00635394874334	0.00599355592759
46.69162685689778	2.98750766682484	0.00731595288839	0.01249233317516	0.00731595288839
49.59819705363439	2.98203989178889	0.00484524441763	0.01796010821111	0.00484524441763
52.68527918831305	2.96756207176300	0.00434797491377	0.03243792823700	0.00434797491377
55.96512360121544	2.97280660836630	0.00458239218537	0.02719339163370	0.00458239218537
59.44892629428456	2.99656524424713	0.00286489162176	0.00343475575287	0.00286489162176
63.14993318253580	3.01700858807319	0.00439031250639	-0.01700858807319	0.00439031250639
67.08161728683419	3.02014573890772	0.00449958518530	-0.02014573890772	0.00449958518530
71.25674393626029	2.99633945910821	0.00377800112927	0.00366054089179	0.00377800112927
75.69203290878548	2.97932712478639	0.00333228651414	0.02067287521361	0.00333228651414
80.40398907406509	2.98794987839131	0.00377826101458	0.01205012160869	0.00377826101458
85.40963448399943	3.02002607190584	0.00271668357357	-0.02002607190584	0.00271668357357
90.72653187540006	3.01878536456346	0.00294808264792	-0.01878536456346	0.00294808264792
96.37377658902379	2.98031081102598	0.00189209774359	0.01968918897402	0.00189209774359
102.37189128615545	2.98105003393359	0.00206800596956	0.01894996606641	0.00206800596956
108.74571634441817	3.00329156786129	0.00225880256926	-0.00329156786129	0.00225880256926
115.51548950257197	2.99414992138857	0.00259335905840	0.00585007861143	0.00259335905840
122.70552891921294	2.99252698714389	0.00211871298293	0.00747301285611	0.00211871298293
130.34483708162855	3.01432411314467	0.00219432479515	-0.01432411314467	0.00219432479515
138.45865024170197	2.99119789644232	0.00204086219137	0.00880210355767	0.00204086219137
147.07624158942960	2.99862284652547	0.00141098524915	0.00137715347453	0.00141098524915
156.23338496030559	3.01232504811148	0.00178127385603	-0.01232504811148	0.00178127385603
165.95779324334120	2.98965540453330	0.00126863130169	0.01034459546670	0.00126863130169
176.28913579735425	3.00818610623789	0.00148722100814	-0.00818610623789	0.00148722100814
187.26303383246920	2.99449583521285	0.00079409098861	0.00550416478715	0.00079409098861
